{
  "Actor": {
    "types": ["character", "npc"],
    "templates": {
      "common": {
        "abilities":{
          "str": {
            "value": 10,
            "min": 3,
            "mod": 0
          },
          "dex": {
            "value": 10,
            "min": 3,
            "mod": 0
          },
          "con": {
            "value": 10,
            "min": 3,
            "mod": 0
          },
          "int": {
            "value": 10,
            "min": 3,
            "mod": 0
          },
          "wis": {
            "value": 10,
            "min": 3,
            "mod": 0
          },
          "cha": {
            "value": 10,
            "min": 3,
            "mod": 0
          }
        },
        "saves": {
          "fortitude": {
            "rank": 0,
            "ability": "con",
            "item": 0,
            "value": 0,
            "breakdown": "",
            "saveDetail": ""
          },
          "reflex": {
            "rank": 0,
            "ability": "dex",
            "item": 0,
            "value": 0,
            "breakdown": "",
            "saveDetail": ""
          },
          "will": {
            "rank": 0,
            "ability": "wis",
            "item": 0,
            "value": 0,
            "breakdown": "",
            "saveDetail": ""
          }
        },
        "attributes": {
          "ac": {
            "min": 0,
            "value": 0,
            "dex": 0,
            "item": 0,
            "check": 0,
            "details": ""
          },
          "allSaves": {
            "value": ""
          },
          "shield": {
            "value": 0,
            "min": 0,
            "max": 0,
            "brokenThreshold": 0,
            "hardness": 0,
            "ac": 0
          },
          "hp": {
            "value": 10,
            "min": 0,
            "max": 10,
            "temp": 0,
            "tempmax": 0,
            "details": ""
          },
          "sp": {
            "value": 0,
            "min": 0,
            "max": 0,
            "details": ""
          },
          "flatbonushp": 0,
          "levelbonushp": 0,
          "flatbonussp": 0,
          "levelbonussp": 0,
          "ancestryhp": 0,
          "classhp": 0,
          "bonusbulk": 0,
          "resolve": {
            "value": 0
          },
          "perception": {
            "rank": 0,
            "ability": "wis",
            "item": 0,
            "value": 0,
            "breakdown": ""
          },
          "classDC": {
            "rank": 0,
            "ability": "str",
            "item": 0,
            "value": 0,
            "breakdown": ""
          },
          "initiative": {
            "circumstance": 0,
            "status": 0
          },
          "init": {
            "bonus": 0,
            "value": 0
          },
          "speed": {
            "value": "25",
            "special": "",
            "otherSpeeds": []
          }
        },
        "details": {
          "alignment": {
            "value": "N"
          },
          "biography": {
            "value": "",
            "public": ""
          },
          "class": {
            "value": ""
          },
          "ancestry": {
            "value": ""
          },
          "heritage": {
            "value": ""
          },
          "deity": {
            "value": ""
          },
          "level": {
            "value": 1,
            "min": 1
          },
          "keyability": {
            "value": "str"
          }
        },
        "skills": {
          "acr": {
            "value": 0,
            "ability": "dex",
            "armor": 1,
            "rank": 0,
            "item": 0,
            "mod": 0,
            "breakdown": ""
          },
          "arc": {
            "value": 0,
            "ability": "int",
            "rank": 0,
            "item": 0,
            "mod": 0,
            "breakdown": ""
          },
          "ath": {
            "value": 0,
            "ability": "str",
            "armor": 1,
            "rank": 0,
            "item": 0,
            "mod": 0,
            "breakdown": ""
          },
          "cra": {
            "value": 0,
            "ability": "int",
            "rank": 0,
            "item": 0,
            "mod": 0,
            "breakdown": ""
          },
          "dec": {
            "value": 0,
            "ability": "cha",
            "rank": 0,
            "item": 0,
            "mod": 0,
            "breakdown": ""
          },
          "dip": {
            "value": 0,
            "ability": "cha",
            "rank": 0,
            "item": 0,
            "mod": 0,
            "breakdown": ""
          },
          "itm": {
            "value": 0,
            "ability": "cha",
            "rank": 0,
            "item": 0,
            "mod": 0,
            "breakdown": ""
          },
          "med": {
            "value": 0,
            "ability": "wis",
            "rank": 0,
            "item": 0,
            "mod": 0,
            "breakdown": ""
          },
          "nat": {
            "value": 0,
            "ability": "wis",
            "rank": 0,
            "item": 0,
            "mod": 0,
            "breakdown": ""
          },
          "occ": {
            "value": 0,
            "ability": "int",
            "rank": 0,
            "item": 0,
            "mod": 0,
            "breakdown": ""
          },
          "prf": {
            "value": 0,
            "ability": "cha",
            "rank": 0,
            "item": 0,
            "mod": 0,
            "breakdown": ""
          },
          "rel": {
            "value": 0,
            "ability": "wis",
            "rank": 0,
            "item": 0,
            "mod": 0,
            "breakdown": ""
          },
          "soc": {
            "value": 0,
            "ability": "int",
            "rank": 0,
            "item": 0,
            "mod": 0,
            "breakdown": ""
          },
          "ste": {
            "value": 0,
            "ability": "dex",
            "armor": 1,
            "rank": 0,
            "item": 0,
            "mod": 0,
            "breakdown": ""
          },
          "sur": {
            "value": 0,
            "ability": "wis",
            "rank": 0,
            "item": 0,
            "mod": 0,
            "breakdown": ""
          },
          "thi": {
            "value": 0,
            "ability": "dex",
            "armor": 1,
            "rank": 0,
            "item": 0,
            "mod": 0,
            "breakdown": ""
          }
        },
        "martial": {
          "unarmored": {
            "rank": 0,
            "value": 0,
            "breakdown": ""
          },
          "light": {
            "rank": 0,
            "value": 0,
            "breakdown": ""
          },
          "medium": {
            "rank": 0,
            "value": 0,
            "breakdown": ""
          },
          "heavy": {
            "rank": 0,
            "value": 0,
            "breakdown": ""
          },
          "simple": {
            "rank": 0,
            "value": 0,
            "breakdown": ""
          },
          "martial": {
            "rank": 0,
            "value": 0,
            "breakdown": ""
          },
          "advanced": {
            "rank": 0,
            "value": 0,
            "breakdown": ""
          },
          "unarmed": {
            "rank": 0,
            "value": 0,
            "breakdown": ""
          }
        },
        "statusEffects": [],
        "schema": {
          "version": {
            "value": ""
          }
        },
        "traits": {
          "size": {
            "value": "med"
          },
          "senses": {
            "value": ""
          },
          "traits": {
            "value": [],
            "custom": ""
          },
          "languages": {
            "value": [],
            "selected": [],
            "custom": ""
          },
          "di": {
            "value": [],
            "custom": ""
          },
          "dr": [],
          "dv": [],
          "ci": []
        },
        "currency": {
          "pp": {
            "value": 0
          },
          "gp": {
            "value": 0
          },
          "sp": {
            "value": 0
          },
          "cp": {
            "value": 0
          }
        },
        "spells": {
          "spell0": {
            "max": 0
          },
          "spell1": {
            "max": 0
          },
          "spell2": {
            "max": 0
          },
          "spell3": {
            "max": 0
          },
          "spell4": {
            "max": 0
          },
          "spell5": {
            "max": 0
          },
          "spell6": {
            "max": 0
          },
          "spell7": {
            "max": 0
          },
          "spell8": {
            "max": 0
          },
          "spell9": {
            "max": 0
          }        ,
          "spell10": {
            "max": 0
          },
          "spell11": {
            "max": 0
          }
        }
      }
    },
    "character": {
      "templates": ["common"],
      "attributes": {
        "dying": {
          "value": 0,
          "max": 4
        },
        "wounded": {
          "value": 0,
          "max": 3
        },
        "doomed": {
          "value": 0,
          "max": 3
        },
        "heroPoints": {
          "rank": 0,
          "max": 3
        }
      },
      "details": {
        "background": {
          "value": ""
        },
        "xp": {
          "value": 0,
          "min": 0,
          "max": 300,
          "pct": 0
        },
        "age": {
          "value": ""
        },
        "height": {
          "value": ""
        },
        "weight": {
          "value": ""
        },
        "gender": {
          "value": ""
        }
      }
    },
    "npc": {
      "templates": ["common"],
      "details": {
        "rarity": {
          "value": ""
        },
        "source": {
          "value": ""
        },
        "flavourText": "",
        "nethysUrl": "",
        "recallKnowledgeText": "",
        "sidebarText": "",
        "creatureType": ""
      }
    }
  },
  "Item": {
    "types": ["weapon", "melee", "armor", "equipment", "consumable", "lore", "martial", "spell", "spellcastingEntry", "feat", "action", "backpack"],
    "templates": {
      "itemDescription": {
        "description": {
          "value": "",
          "chat": "",
          "unidentified": ""
        },
        "source": {
          "value": ""
        },
        "traits": {
          "value": []
        }
      },
      "physicalItem": {
        "quantity": {
          "value": 1
        },
        "weight": {
          "value": 0
        },
        "price": {
          "value": 0
        },
        "invested": {
          "value": false
        },
        "equipped": {
          "value": false
        },
        "identified": {
          "value": false
        }
      },
      "itemLevel": {
        "level": {
          "value": 0
        }
      },
      "activatedEffect": {
        "activation": {
          "type": "",
          "cost": 0,
          "condition": ""
        },
        "duration": {
          "value": null,
          "units": ""
        },
        "target": {
          "value": null,
          "units": "",
          "type": ""
        },
        "range": {
          "value": null,
          "long": null,
          "units": ""
        },
        "uses": {
          "value": 0,
          "max": 0,
          "per": null
        }
      },
      "magicItem": {
        "property1": {
          "value": "",
          "dice": 0,
          "die": "",
          "damageType": ""
        },
        "property2": {
          "value": "",
          "dice": 0,
          "die": "",
          "damageType": ""
        },
        "property3": {
          "value": "",
          "dice": 0,
          "die": "",
          "damageType": ""
        }
      }
    },
    "backpack": {
      "templates": ["itemDescription", "physicalItem"],
      "capacity": {
        "type": "weight",
        "value": 0,
        "weightless": false
      },
      "currency": {
        "cp": 0,
        "sp": 0,
        "ep": 0,
        "gp": 0,
        "pp": 0
      }
    },
    "weapon": {
      "templates": ["itemDescription", "physicalItem", "itemLevel", "magicItem"],
      "weaponType": {
        "value": ""
      },
      "group": {
        "value": ""
      },
      "hands": {
        "value": ""
      },
      "bonus": {
        "value": 0
      },
      "damage": {
        "value": "",
        "dice": 0,
        "die": "",
        "damageType": ""
      },
      "bonusDamage": {
        "value": 0
      },
      "range": {
        "value": ""
      },
      "reload": {
        "value": ""
      },
      "ability": {
        "value": ""
      },
      "MAP": {
        "value": ""
      }
    },
    "armor": {
      "templates": ["itemDescription", "physicalItem", "itemLevel", "magicItem"],
      "armor": {
        "value": 0
      },
      "armorType": {
        "value": ""
      },
      "group": {
        "value": ""
      },
      "strength": {
        "value": 0
      },
      "dex": {
        "value": 0
      },
      "check": {
        "value": 0
      },
      "speed": {
        "value": 0
      }
    },
    "melee": {
      "templates": ["itemDescription", "physicalItem", "magicItem"],
      "attack": {
        "value": ""
      },
      "damageRolls": {},
      "bonus": {
        "value": 0
      },
      "attackEffects": {
        "value": []
      }
    },
    "consumable": {
      "templates": ["itemDescription", "physicalItem", "activatedEffect", "itemLevel"],
      "consumableType": {
        "value": "potion"
      },
      "uses": {
        "value": 0,
        "max": 0,
        "per": null,
        "autoUse": true,
        "autoDestroy": true
      },
      "charges": {
        "value": 1,
        "max": 1,
        "_deprecated": true
      },
      "consume": {
        "value": "",
        "_deprecated": true
      },
      "autoUse": {
        "value": true,
        "_deprecated": true
      },
      "autoDestroy": {
        "value": true,
        "_deprecated": true
      }
    },
    "equipment": {
      "templates": ["itemDescription", "physicalItem", "itemLevel"]
    },
    "feat": {
      "templates": ["itemDescription", "itemLevel"],
      "featType": {
        "value": ""
      },
      "actionType": {
        "value": ""
      },
      "actionCategory": {
        "value": ""
      },
      "actions": {
        "value": ""
      },
      "prerequisites": {
        "value": ""
      }
    },
    "lore": {
      "templates": ["itemDescription"],
      "featType": "",
      "mod": {
        "value": 0
      },
      "proficient": {
        "value": 0
      },
      "item": {
        "value": 0
      }
    },
    "martial": {
      "templates": ["itemDescription"],
      "proficient": {
        "value": 0
      },
      "item": {
        "value": 0
      }
    },
    "action": {
      "templates": ["itemDescription"],
      "actionType": {
        "value": ""
      },
      "actionCategory": {
        "value": ""
      },
      "weapon": {
        "value": ""
      },
      "actions": {
        "value": ""
      },
      "requirements": {
        "value": ""
      },
      "trigger": {
        "value": ""
      },
      "skill_requirements": {
        "skill": "",
        "rank": ""
      }
    },
    "spell": {
      "templates": ["itemDescription", "itemLevel"],
      "spellType": {
        "value": ""
      },
      "traditions": {
        "value": []
      },
      "school": {
        "value": ""
      },
      "components": {
        "value": ""
      },
      "materials": {
        "value": ""
      },
      "target": {
        "value": ""
      },
      "range": {
        "value": ""
      },
      "area": {
        "value": ""
      },
      "time": {
        "value": ""
      },
      "duration": {
        "value": ""
      },
      "damage": {
        "value": "",
        "applyMod": false
      },
      "damageType": {
        "value": ""
      },
      "scaling": {
        "mode": "",
        "formula": ""
      },
      "save": {
        "basic": ""
      },
      "sustained": {
        "value": false
      },
      "cost": {
        "value": ""
      },
      "ability": {
        "value": ""
      },
      "prepared": {
        "value": ""
      },
      "location": {
        "value": ""
      }
    },
    "spellcastingEntry": {
      "templates": ["itemDescription"],
      "ability": {
        "value": ""
      },
      "spelldc": {
        "value": 0,
        "dc": 0,
        "item": 0,
        "mod": 0
      },
      "tradition": {
        "value": ""
      },
      "focus": {
        "points": 1,
        "pool": 1
      },
      "prepared": {
        "value": ""
      },
      "showUnpreparedSpells": {
        "value": false
      },
      "item": {
        "value": 0
      },
      "proficiency": {
        "value": 0
      },
      "displayLevel": {
      },
      "slots": {
        "slot0": {
          "prepared": [],
          "value": 0,
          "max": 0
        },
        "slot1": {
          "prepared": [],
          "value": 0,
          "max": 0
        },
        "slot2": {
          "prepared": [],
          "value": 0,
          "max": 0
        },
        "slot3": {
          "prepared": [],
          "value": 0,
          "max": 0
        },
        "slot4": {
          "prepared": [],
          "value": 0,
          "max": 0
        },
        "slot5": {
          "prepared": [],
          "value": 0,
          "max": 0
        },
        "slot6": {
          "prepared": [],
          "value": 0,
          "max": 0
        },
        "slot7": {
          "prepared": [],
          "value": 0,
          "max": 0
        },
        "slot8": {
          "prepared": [],
          "value": 0,
          "max": 0
        },
        "slot9": {
          "prepared": [],
          "value": 0,
          "max": 0
        },
        "slot10": {
          "prepared": [],
          "value": 0,
          "max": 0
        },
        "slot11": {
          "prepared": [],
          "value": 0,
          "max": 0
        }
      }
    }
  }
}
